{
  "photos": {
    "page": 1,
    "pages": 72428,
    "perpage": 5,
    "total": "362136",
    "photo": [
      {
        "id": "29859815436",
        "owner": "94230198@N03",
        "secret": "3b9bbc52a8",
        "server": "8579",
        "farm": 9,
        "title": "_DSC1241.jpg",
        "ispublic": 1,
        "isfriend": 0,
        "isfamily": 0
      },
      {
        "id": "29811276721",
        "owner": "134743488@N06",
        "secret": "4936b2a431",
        "server": "8069",
        "farm": 9,
        "title": "DSC_0256",
        "ispublic": 1,
        "isfriend": 0,
        "isfamily": 0
      },
      {
        "id": "29267453104",
        "owner": "13553045@N05",
        "secret": "464afe0009",
        "server": "8029",
        "farm": 9,
        "title": "Spring Bluff Railway Station",
        "ispublic": 1,
        "isfriend": 0,
        "isfamily": 0
      },
      {
        "id": "29267451644",
        "owner": "94230198@N03",
        "secret": "7ee2d29457",
        "server": "7759",
        "farm": 8,
        "title": "_DSC1245.jpg",
        "ispublic": 1,
        "isfriend": 0,
        "isfamily": 0
      },
      {
        "id": "29894583965",
        "owner": "105239751@N02",
        "secret": "b7f7b45b98",
        "server": "8012",
        "farm": 9,
        "title": "IMG_1532",
        "ispublic": 1,
        "isfriend": 0,
        "isfamily": 0
      }
    ]
  },
  "stat": "ok"
}